<?xml version="1.0" encoding="UTF-8" standalone="no"?>
<!DOCTYPE svg PUBLIC "-//W3C//DTD SVG 1.1//EN" "http://www.w3.org/Graphics/SVG/1.1/DTD/svg11.dtd">
<!-- Created with Inkscape (http://www.inkscape.org/) by Marsupilami -->
<svg
   xmlns:svg="http://www.w3.org/2000/svg"
   xmlns="http://www.w3.org/2000/svg"
   version="1.1"
   id="svg3433"
   width="365"
   height="365"
   viewBox="-10.2922632 -10.2922632 363.6599664 363.6599664">
  <defs
     id="defs3435" />
<!--  <path
     id="path4193"
     d="m 352.62113,76.248025 c -5.26129,0 -9.52734,4.26605 -9.52734,9.52734 l 0,133.863295 c 0,5.25675 4.26605,9.52344 9.52734,9.52344 l 30.26953,0 c 17.17416,0 32.75319,-1.78555 42.75782,-4.90235 7.20134,-2.23082 14.45195,-6.94732 22.8164,-14.85742 7.08321,-6.68793 12.65316,-15.07041 16.54688,-24.91601 4.02548,-10.19091 5.98828,-20.94001 5.98828,-32.85742 0,-16.62895 -3.50183,-30.93614 -10.7168,-43.7168 -6.54708,-11.622105 -15.19428,-19.886595 -27.23437,-26.029305 -11.05871,-5.63386 -27.50164,-5.63477 -48.31055,-5.63477 l -32.11719,0 z m 570.90821,0 c -2.11724,0 -3.83985,1.71611 -3.83985,3.83789 l 0,145.236345 c 0,2.12178 1.72261,3.84375 3.83985,3.84375 l 72.61718,0 c 2.11269,0 3.85348,-1.72197 3.85348,-3.84375 l 0,-17.08008 c 0,-2.13086 -1.74079,-3.84766 -3.85348,-3.84766 l -47.41406,0 0,-124.308605 c 0,-2.12178 -1.72714,-3.83789 -3.83984,-3.83789 l -21.36328,0 z m -551.38868,24.771495 14.63282,0 c 19.44587,0 32.77241,3.82088 40.75976,11.68555 9.49576,9.35492 14.10352,21.87098 14.10352,38.26367 0,11.01781 -2.1034,21.0676 -5.90625,28.28711 -4.58432,8.65522 -9.87266,14.69398 -15.29297,17.46094 -7.45576,3.79376 -16.8433,7.67772 -29.92383,7.67772 l -18.37305,0 0,-103.37499 z m 178.92969,7.52539 c -17.25594,0 -31.21721,5.70116 -42.66211,17.42774 -11.45398,11.74022 -17.01562,26.08481 -17.01562,43.84961 0,17.33773 5.57544,31.36716 17.07031,42.88476 11.47671,11.51759 25.9379,17.11133 44.20703,17.11133 11.74021,0 21.91862,-2.06318 30.24219,-6.125 7.01505,-3.41666 13.2427,-8.37293 18.53125,-14.73828 0.7633,-0.91777 1.04931,-2.14094 0.78125,-3.3086 -0.25443,-1.16312 -1.04952,-2.14021 -2.13086,-2.64453 l -17.18164,-7.90039 c -1.35395,-0.62699 -2.97615,-0.40389 -4.12109,0.58203 -7.66931,6.62886 -16.53318,9.9961 -26.3379,9.9961 -9.79562,0 -17.23359,-2.22291 -22.74023,-6.78907 -5.86102,-4.866 -9.11458,-9.94577 -10.60937,-16.71093 l 89.48828,0 c 2.1127,0 3.83402,-1.70309 3.84765,-3.82031 l 0.0176,-3.79297 c 0,-19.80026 -6.2206,-37.50324 -17.07031,-48.59375 -11.4767,-11.72658 -25.9655,-17.42774 -44.31641,-17.42774 z m 141.45899,0 c -17.26957,0 -31.21721,5.70116 -42.66211,17.42774 -11.44944,11.74022 -17.01563,26.08481 -17.01563,43.84961 0,17.33318 5.57998,31.35808 17.07032,42.88476 11.4767,11.51759 25.93791,17.11133 44.20703,17.11133 11.74022,0 21.91667,-2.06318 30.24023,-6.125 7.01051,-3.41666 13.24465,-8.37358 18.5332,-14.73438 0.75875,-0.92232 1.0584,-2.14352 0.78125,-3.30664 -0.25443,-1.16766 -1.04498,-2.14607 -2.13086,-2.65039 l -17.18359,-7.90039 c -1.36303,-0.62699 -2.98069,-0.40389 -4.12109,0.58203 -7.68294,6.62886 -16.54226,9.9961 -26.33789,9.9961 -9.79563,0 -17.23365,-2.2216 -22.75391,-6.78321 -5.86103,-4.87055 -9.09896,-9.95617 -10.59375,-16.71679 l 89.48633,0 c 2.11724,0 3.82686,-1.70309 3.83594,-3.82031 l 0.0312,-3.79297 c 0,-19.8048 -6.22062,-37.51232 -17.07032,-48.59375 -11.49033,-11.72658 -25.97912,-17.42774 -44.3164,-17.42774 z m 151.35351,0 c -6.97871,0 -14.04464,1.38533 -19.92383,3.91602 -6.8515,2.93506 -13.1481,7.05554 -17.73242,11.60351 l -2.73047,2.18164 -12.30468,-11.55468 -12.91602,0 c -2.11269,0 -3.82617,1.71348 -3.82617,3.82617 l 0,149.52734 c 0,2.12178 1.71806,3.83985 3.83984,3.83985 l 21.35938,0 c 2.12178,0 3.84765,-1.72133 3.84765,-3.84766 l 0,-55.27539 2.7168,2.0664 c 5.8474,5.4703 13.40366,9.24112 18.74219,11.44922 5.67474,2.34441 11.90689,3.54493 18.51758,3.54493 15.02058,0 27.64739,-5.67097 38.61523,-17.32032 10.94058,-11.61755 16.26953,-25.71972 16.26953,-43.10742 0,-17.65577 -5.34218,-32.39482 -15.92383,-43.79883 -10.45897,-11.31768 -23.43025,-17.05078 -38.55078,-17.05078 z m -291.36328,23.8086 c 7.00597,0 13.73194,2.27081 19.97461,6.74609 5.48847,3.93007 9.48598,9.67684 11.50781,16.42383 l 0.44922,1.87695 -65.08789,0 0.67188,-1.75391 c 3.88009,-8.50076 7.42904,-13.8573 10.8457,-16.3789 6.17906,-4.58432 13.4605,-6.91406 21.63867,-6.91406 z m 141.44922,0 c 7.01051,0 13.74103,2.26627 19.97461,6.74609 5.49301,3.93007 9.49507,9.67815 11.50781,16.42969 l 0.45899,1.87109 -65.08399,0 0.67578,-1.75781 c 3.84828,-8.47803 7.39262,-13.83523 10.81836,-16.375 6.19724,-4.58432 13.47027,-6.91406 21.64844,-6.91406 z m 144.28906,2.24218 c 9.20499,0 16.91877,3.254 22.94336,9.6875 6.02459,6.41532 9.0918,14.76045 9.0918,24.79688 0,10.10913 -3.11116,18.53814 -9.24024,25.0625 -6.13363,6.52891 -13.80801,9.8457 -22.79492,9.8457 -9.2595,0 -17.04338,-3.26241 -23.15429,-9.67773 -6.08819,-6.42895 -9.18555,-14.95225 -9.18555,-25.33399 0,-10.18637 3.09803,-18.54205 9.19531,-24.85742 6.10182,-6.31991 13.88503,-9.52344 23.14453,-9.52344 z"
     style="fill:#042b48;fill-opacity:1;fill-rule:nonzero;stroke:none" />
-->
  <path
     id="path4213"
     style="fill:#042b48;fill-opacity:1;fill-rule:nonzero;stroke:none"
     d="m 186.11247,175.4411 c -12.70797,0 -23.00338,-10.29541 -23.00338,-23.00338 0,-1.34031 0.11359,-2.65336 0.34076,-3.93006 l -55.01184,-31.67679 c -4.00276,3.38031 -9.177725,5.42031 -14.825207,5.42031 -12.70797,0 -23.007922,-10.29995 -23.007922,-23.003385 0,-12.70343 10.299952,-23.00338 23.007922,-23.00338 12.707977,0 23.007927,10.29995 23.007927,23.00338 0,1.462995 -0.14993,2.894175 -0.41345,4.284465 l 54.81192,31.55865 c 4.03911,-3.52116 9.31857,-5.65657 15.09327,-5.65657 12.69888,0 22.99884,10.29995 22.99884,23.00338 0,12.70797 -10.29996,23.00338 -22.99884,23.00338 m -69.77343,30.55001 c 0,12.70343 -10.29541,23.00338 -23.003386,23.00338 -12.698883,0 -22.998836,-10.29995 -22.998836,-23.00338 0,-12.70797 10.299953,-23.00792 22.998836,-23.00792 5.71109,0 10.926946,2.08544 14.947886,5.52935 l 40.10484,-23.04881 c 1.71287,4.94779 4.37532,9.45488 7.76018,13.3077 l -40.17754,23.09425 c 0.23626,1.34031 0.36802,2.71697 0.36802,4.12543 M 254.65918,65.603705 145.42607,3.186075 c -7.4376,-4.2481 -16.56989,-4.2481 -24.00748,0 L 12.19456,65.603705 C 4.65247,69.910875 0,77.934565 0,86.612515 L 0,213.58318 c 0,8.6416 4.61158,16.6335 12.09915,20.9543 l 188.03888,108.53795 0.0318,-77.09288 54.56658,-31.44507 c 7.49665,-4.3208 12.11278,-12.3127 12.11278,-20.96338 l 0,-126.961585 c 0,-8.67795 -4.65247,-16.70164 -12.19002,-21.00881" />

</svg>
<!-- version: 20171223, original size: 1000 343.07544, border: 3% -->
